Predict counterfactual outcomes in GLM models — predict_counterfactuals • beeca
…
    Examples

# Preparing data and fitting a GLM model
trial01$trtp <- factor(trial01$trtp)
fit1 <- glm(aval ~ trtp + bl_cov, family = "binomial", data = trial01)

# Generating counterfactual predictions
fit2 <- predict_counterfactuals(fit1, "trtp")
#> Warning: There is 1 record omitted from the original data due to missing values, please check if they should be imputed prior to model fitting.

# Accessing the counterfactual predictions
fit2$counterfactual.predictions
#> # A tibble: 267 × 2
#>      `0`   `1`
#>    <dbl> <dbl>
#>  1 0.533 0.463
#>  2 0.537 0.468
#>  3 0.481 0.413
#>  4 0.510 0.441
#>  5 0.428 0.362
#>  6 0.474 0.406
#>  7 0.490 0.421
#>  8 0.496 0.427
#>  9 0.514 0.445
#> 10 0.490 0.422
#> # ℹ 257 more rows
…
